<svg xmlns="http://www.w3.org/2000/svg" xmlns:xlink="http://www.w3.org/1999/xlink" preserveAspectRatio="xMidYMid" width="70" height="61" viewBox="0 0 70 61">
  <path d="M69.391,55.917 C69.391,55.917 37.795,1.602 37.795,1.602 C37.217,0.608 36.148,-0.004 34.992,-0.004 C33.836,-0.004 32.767,0.608 32.189,1.602 C32.189,1.602 0.437,56.188 0.437,56.188 C-0.141,57.182 -0.141,58.407 0.437,59.401 C1.015,60.395 2.084,61.008 3.240,61.008 C3.240,61.008 66.744,61.008 66.744,61.008 C66.750,61.008 66.758,61.008 66.762,61.008 C68.551,61.008 69.999,59.569 69.999,57.795 C69.999,57.094 69.774,56.446 69.391,55.917 ZM8.847,54.582 C8.847,54.582 34.992,9.634 34.992,9.634 C34.992,9.634 61.137,54.582 61.137,54.582 C61.137,54.582 8.847,54.582 8.847,54.582 C8.847,54.582 8.847,54.582 8.847,54.582 ZM27.354,27.943 C27.354,27.943 26.971,26.288 26.971,26.288 C26.971,26.288 26.589,27.943 26.589,27.943 C25.939,30.754 26.735,33.645 28.714,35.732 C28.085,35.587 27.431,35.508 26.761,35.508 C23.770,35.508 21.034,37.012 19.442,39.533 C19.442,39.533 18.534,40.971 18.534,40.971 C18.534,40.971 19.983,40.070 19.983,40.070 C21.231,39.294 22.669,38.884 24.145,38.884 C28.472,38.884 31.993,42.378 31.993,46.674 C31.993,48.138 31.579,49.565 30.798,50.804 C30.798,50.804 29.890,52.242 29.890,52.242 C29.890,52.242 31.339,51.341 31.339,51.341 C33.123,50.231 34.398,48.560 35.001,46.634 C35.604,48.560 36.880,50.231 38.663,51.341 C38.663,51.341 40.113,52.242 40.113,52.242 C40.113,52.242 39.204,50.804 39.204,50.804 C38.423,49.565 38.009,48.138 38.009,46.674 C38.009,42.378 41.531,38.884 45.858,38.884 C47.333,38.884 48.771,39.294 50.019,40.070 C50.019,40.070 51.467,40.971 51.467,40.971 C51.467,40.971 50.560,39.533 50.560,39.533 C48.967,37.012 46.233,35.508 43.241,35.508 C42.569,35.508 41.916,35.587 41.288,35.732 C43.267,33.645 44.063,30.754 43.413,27.943 C43.413,27.943 43.032,26.288 43.032,26.288 C43.032,26.288 42.649,27.943 42.649,27.943 C42.320,29.368 41.593,30.667 40.551,31.704 C39.067,33.173 37.098,33.984 35.001,33.984 C32.904,33.984 30.935,33.173 29.451,31.704 C28.409,30.667 27.683,29.368 27.354,27.943 ZM35.001,38.435 C35.668,38.435 36.321,38.358 36.954,38.213 C36.072,39.146 35.396,40.272 35.001,41.521 C34.606,40.272 33.930,39.146 33.048,38.213 C33.680,38.358 34.334,38.435 35.001,38.435 Z" id="path-1" />
</svg>
