<?xml version="1.0" encoding="utf-8"?>
<svg version="1.1" id="building-2" xmlns="http://www.w3.org/2000/svg" xmlns:xlink="http://www.w3.org/1999/xlink" x="0px" y="0px" viewBox="0 42.6 128 19.9" xml:space="preserve">
	<style type="text/css">
		#bdf-draw {
			fill: #45525b;
		}
	</style>
<path id="bdf-draw" d="M76.6,53.1v-2.8l-1.5-1.6h-1.5v7.7h-2.5v1.4h-0.7V50l-1.5-1.6h-1.4v3.3h-1.2v-4.6h-1.9v8.8h-0.7v0.5H63v-1.1
	h-0.9v-1.6h-3v1.6L55,52.6v2.9h-2.8v-9.6h-4.7v8.8l-2.9,2.7v0.8h-2.4V54h-2.8v5.8H39v-3.4h-0.4V53h-0.7v-3.7h-2.4v3.6h-1.2v-2.4
	h-1.6v-5.2h-3.2l-2.1,3.2v2.4H26v5.5h-0.3v3.4H25V42.6h-3.7v12.7h-4.6v4.5h-1.3v-1.6H12V54h-1.1v4.2h-0.4v-1.6H9.6v-2.1H7.7v2.2H3.8
	v-1H1v4.2H0v2.6h128V56h-0.6v-8.9h-1.9v4.6h-1.2v-3.3h-1.5l-1.5,1.6v7.7h-0.7v-1.4h-2.5v-7.8h-1.5l-1.8,1.4v3.2h-1.9v1.3l-0.7-0.7
	h-1.9v1.9h-0.1v2.6H109v-7.4h-0.3v-0.1h-1.1l-0.1,0.1H107v0.5l-0.4,0.4v4.6h-1.9v-7.2h-1.9l-1.9,2v5.1h-1.4v2.1h-0.3v-7.5H97v3.3v5
	h-2.4v-4.9v-3.1h-2.2v7.2h-0.1v-2h-1.4v-4.9l-2-2H87v7.2h-1.9V52l-0.5-0.3v-0.8h-2.1v7.6h-1.4v-4.4h-1.9l-0.7,0.6v-1.6H76.6
	L76.6,53.1z"/>
</svg>
