<?xml version="1.0" encoding="utf-8"?>
<!-- Generator: Adobe Illustrator 18.1.1, SVG Export Plug-In . SVG Version: 6.00 Build 0)  -->
<!DOCTYPE svg PUBLIC "-//W3C//DTD SVG 1.1//EN" "http://www.w3.org/Graphics/SVG/1.1/DTD/svg11.dtd">
<svg version="1.1" id="Layer_1" xmlns="http://www.w3.org/2000/svg" xmlns:xlink="http://www.w3.org/1999/xlink" x="0px" y="0px"
	 viewBox="20 25 24.1 14.1" enable-background="new 20 25 24.1 14.1" xml:space="preserve">
<polygon opacity="0.1" fill="#353E3D" enable-background="new    " points="42.3,31 43.3,30.7 44.1,31.6 27,39.1 25.3,37.1 
	22.1,32.9 21.5,33 20,31.4 23.8,29.7 35,32.2 39.7,32.1 "/>
<polygon opacity="0.1" fill="#353E3D" enable-background="new    " points="33.5,27.7 37.6,26.2 36.3,25.8 33,27.4 "/>
<g>
	<polygon fill="#353E3D" points="42.8,29.7 38.8,31.7 37.5,30.2 36.1,29.4 35.5,28.5 33.5,27.4 37.6,25.8 36.6,25 28.5,27.8 
		27.3,27.8 20,29.7 21.5,33 25.1,36.9 27.5,38.6 44.1,30.7 	"/>
</g>
<polygon opacity="6.000000e-02" fill="#3E4545" enable-background="new    " points="27.5,38.6 30.3,37.2 30.2,32.6 26.2,37.7 "/>
<polygon opacity="6.000000e-02" fill="#3E4545" enable-background="new    " points="20,29.7 21.4,32.6 31.7,28.5 28.5,27.8 
	27.3,27.8 "/>
</svg>
