<svg xmlns="http://www.w3.org/2000/svg" xmlns:xlink="http://www.w3.org/1999/xlink" preserveAspectRatio="xMidYMid" width="90" height="75" viewBox="0 0 90 75">
  <path d="M87.847,9.477 C87.434,8.982 86.941,8.584 86.400,8.290 C86.466,8.105 86.529,7.917 86.589,7.729 C87.214,5.752 86.565,3.588 84.959,2.294 C84.063,1.572 82.971,1.206 81.877,1.206 C81.008,1.206 80.136,1.438 79.356,1.904 C77.340,3.113 75.198,4.050 72.964,4.704 C69.231,1.689 64.541,0.004 59.719,0.004 C48.678,0.004 39.586,8.584 38.622,19.492 C29.130,17.683 20.462,12.519 14.273,4.849 C13.329,3.679 11.921,3.008 10.441,3.008 C10.313,3.008 10.182,3.012 10.052,3.022 C8.434,3.152 6.983,4.074 6.166,5.493 C4.290,8.752 3.298,12.476 3.298,16.257 C3.298,19.006 3.817,21.682 4.788,24.160 C3.812,25.056 3.218,26.320 3.170,27.683 C3.167,27.744 3.165,28.007 3.165,28.066 C3.165,33.750 5.401,39.016 9.093,42.905 C8.784,43.882 8.772,44.951 9.093,45.962 C10.491,50.376 13.218,54.087 16.748,56.696 C14.203,57.461 11.537,57.851 8.806,57.851 C7.690,57.851 6.584,57.785 5.522,57.659 C5.321,57.634 5.126,57.622 4.930,57.622 C2.865,57.622 0.989,58.928 0.277,60.932 C-0.501,63.127 0.322,65.573 2.264,66.831 C10.503,72.172 20.033,74.995 29.818,74.995 C61.706,74.995 80.810,48.913 80.955,23.599 C83.729,21.260 86.152,18.537 88.175,15.476 C89.397,13.625 89.264,11.181 87.847,9.477 ZM75.961,21.191 C75.992,21.894 76.009,22.602 76.009,23.313 C76.009,44.995 59.680,69.995 29.818,69.995 C20.651,69.995 12.117,67.277 4.932,62.622 C6.203,62.776 7.495,62.851 8.806,62.851 C16.410,62.851 23.411,60.229 28.968,55.830 C21.863,55.695 15.867,50.952 13.802,44.436 C14.792,44.626 15.811,44.728 16.857,44.728 C18.337,44.728 19.419,44.528 20.781,44.155 C13.356,42.646 7.405,36.015 7.405,28.066 C7.405,27.997 7.405,27.929 7.405,27.861 C9.878,29.089 12.452,29.826 15.114,29.912 C10.757,26.970 8.067,21.948 8.067,16.257 C8.067,13.249 8.956,10.432 10.351,8.007 C18.359,17.934 30.368,24.465 43.860,25.151 C43.582,23.950 43.462,22.697 43.462,21.411 C43.462,12.351 50.740,5.005 59.707,5.005 C64.374,5.005 68.600,6.997 71.563,10.186 C75.261,9.450 78.738,8.086 81.875,6.206 C80.663,10.036 78.088,13.251 74.737,15.283 C78.021,14.885 81.151,14.004 84.063,12.697 C81.887,15.988 79.134,18.877 75.961,21.191 Z" id="path-1" />
</svg>
