<?xml version="1.0" encoding="utf-8"?>
<svg version="1.1" id="sea" xmlns="http://www.w3.org/2000/svg" xmlns:xlink="http://www.w3.org/1999/xlink" x="0px" y="0px" viewBox="0 59 128 9.9" xml:space="preserve">
	<style type="text/css">
		#water {
			fill: #477ac7;
		}
	</style>
<path id="water" d="M125,59.9c-0.6-0.4-1.1-0.8-2.3-0.8s-1.8,0.4-2.3,0.8c-0.6,0.4-1.3,0.9-2.7,0.9c-1.3,0-2.1-0.5-2.7-0.9
	c-0.6-0.4-1.1-0.8-2.3-0.8c-1.1,0-1.8,0.4-2.3,0.8c-0.6,0.4-1.3,0.9-2.7,0.9c-1.3,0-2.1-0.5-2.7-0.9c-0.6-0.4-1.1-0.8-2.3-0.8
	c-1.1,0-1.8,0.4-2.3,0.8c-0.6,0.4-1.3,0.9-2.7,0.9s-2.1-0.5-2.7-0.9c-0.6-0.4-1.1-0.8-2.3-0.8s-1.8,0.4-2.3,0.8
	c-0.6,0.4-1.3,0.9-2.7,0.9c-1.3,0-2.1-0.5-2.7-0.9c-0.6-0.4-1.1-0.8-2.3-0.8c-1.1,0-1.8,0.4-2.3,0.8c-0.6,0.4-1.3,0.9-2.7,0.9
	s-2.1-0.5-2.7-0.9C75,59.5,74.5,59,73.4,59c-1.1,0-1.8,0.4-2.3,0.8c-0.6,0.4-1.3,0.9-2.7,0.9c-1.3,0-2.1-0.5-2.7-0.9
	c-0.6-0.4-1.1-0.8-2.3-0.8c-1.1,0-1.8,0.4-2.3,0.8c-0.6,0.4-1.3,0.9-2.7,0.9c-1.3,0-2.1-0.5-2.7-0.9c-0.6-0.4-1.1-0.8-2.3-0.8
	c-1.1,0-1.8,0.4-2.3,0.8c-0.6,0.4-1.3,0.9-2.7,0.9c-1.4,0-2.1-0.5-2.7-0.9c-0.6-0.4-1.1-0.8-2.3-0.8c-1.1,0-1.8,0.4-2.3,0.8
	c-0.6,0.4-1.3,0.9-2.7,0.9c-1.3,0-2.1-0.5-2.7-0.9C35.5,59.5,35,59,33.9,59c-1.1,0-1.8,0.4-2.3,0.8c-0.6,0.4-1.3,0.9-2.7,0.9
	c-1.3,0-2.1-0.5-2.7-0.9C25.6,59.5,25.1,59,24,59s-1.8,0.4-2.3,0.8c-0.6,0.4-1.3,0.9-2.7,0.9c-1.4,0-2.1-0.5-2.7-0.9
	c-0.6-0.4-1.1-0.8-2.3-0.8c-1.1,0-1.8,0.4-2.3,0.8c-0.6,0.4-1.3,0.9-2.7,0.9s-2.1-0.5-2.7-0.9C5.8,59.5,5.3,59,4.2,59
	S2.5,59.4,2,59.9c-0.5,0.4-1,0.7-2,0.9V69h128v-8.2C126.2,60.7,125.7,60.3,125,59.9z"/>
</svg>
