{
  "name": "jqpatch",
  "version": "1.1.0",
  "description": "A collections of jQuery plugins to patch the original plugins. Also contains new plugins.",
  "title": "jQuery Patch Collections",
  "sampleUrl": false,
  "apidoc": "0.2.0",
  "generator": {
    "name": "apidoc",
    "time": "2015-04-10T16:12:08.113Z",
    "url": "http://apidocjs.com",
    "version": "0.12.1"
  }
}