<svg xmlns="http://www.w3.org/2000/svg" xmlns:xlink="http://www.w3.org/1999/xlink" preserveAspectRatio="xMidYMid" width="48" height="91" viewBox="0 0 48 91">
  <path d="M42.960,25.274 C45.750,25.274 48.012,22.020 48.012,19.228 C48.012,19.228 48.012,5.051 48.012,5.051 C48.012,2.259 45.750,-0.004 42.960,-0.004 C42.960,-0.004 30.496,-0.004 30.496,-0.004 C23.258,-0.004 17.290,1.995 13.362,5.940 C10.853,8.458 7.591,13.047 7.591,20.716 C7.591,20.716 7.591,27.801 7.591,27.801 C7.591,27.801 5.068,27.801 5.068,27.801 C2.277,27.801 0.012,29.063 0.012,31.855 C0.012,31.855 0.012,45.471 0.012,45.471 C0.012,48.263 2.277,50.551 5.068,50.551 C5.068,50.551 7.591,50.551 7.591,50.551 C7.591,50.551 7.591,85.938 7.591,85.938 C7.591,88.730 10.466,90.996 13.256,90.996 C13.256,90.996 30.081,90.996 30.081,90.996 C32.872,90.996 35.381,88.730 35.381,85.938 C35.381,85.938 35.381,50.551 35.381,50.551 C35.381,50.551 41.371,50.551 41.371,50.551 C43.850,50.551 45.962,48.870 46.359,46.424 C46.404,46.148 47.460,39.709 47.983,32.430 C48.084,31.030 47.598,29.914 46.641,28.888 C45.686,27.856 44.346,27.801 42.943,27.801 C42.943,27.801 35.381,27.801 35.381,27.801 C35.381,27.801 35.381,25.274 35.381,25.274 C35.381,25.274 42.960,25.274 42.960,25.274 ZM42.943,32.857 C42.429,37.912 41.371,45.496 41.371,45.496 C41.371,45.496 30.328,45.496 30.328,45.496 C30.328,45.496 30.328,85.940 30.328,85.940 C30.328,85.940 12.644,85.940 12.644,85.940 C12.644,85.940 12.644,45.496 12.644,45.496 C12.644,45.496 5.065,45.496 5.065,45.496 C5.065,45.496 5.065,32.857 5.065,32.857 C5.065,32.857 12.644,32.857 12.644,32.857 C12.644,32.857 12.644,22.756 12.644,20.716 C12.644,18.682 12.841,5.051 30.496,5.051 C32.864,5.051 38.238,5.051 42.960,5.051 C42.960,10.968 42.960,17.690 42.960,20.218 C39.422,20.218 35.603,20.218 33.795,20.218 C31.981,20.218 30.328,21.102 30.328,22.492 C30.328,23.879 30.328,32.857 30.328,32.857 C30.328,32.857 41.472,32.857 42.943,32.857 Z" id="path-1" />
</svg>
