<svg xmlns="http://www.w3.org/2000/svg" xmlns:xlink="http://www.w3.org/1999/xlink" preserveAspectRatio="xMidYMid" width="58" height="65" viewBox="0 0 58 65">
  <path d="M36.778,64.147 C21.641,67.041 6.068,49.879 1.327,25.077 C0.487,20.686 0.044,16.257 0.009,11.915 C0.001,10.884 0.455,9.910 1.241,9.267 C1.672,8.914 2.177,8.680 2.708,8.579 C3.148,8.495 3.605,8.501 4.054,8.602 C10.899,10.157 18.609,10.197 26.351,8.717 C33.980,7.259 41.045,4.442 46.783,0.569 C47.157,0.317 47.573,0.148 48.004,0.065 C48.540,-0.037 49.102,-0.006 49.636,0.168 C50.601,0.480 51.377,1.219 51.745,2.176 C53.284,6.167 54.485,10.400 55.318,14.755 C60.060,39.557 51.916,61.253 36.778,64.147 ZM48.640,3.394 C42.771,7.355 35.341,10.449 26.988,12.046 C18.501,13.668 10.333,13.496 3.344,11.908 C3.377,15.937 3.779,20.153 4.601,24.451 C8.919,47.040 23.039,63.323 36.142,60.819 C49.242,58.314 56.362,37.970 52.044,15.381 C51.232,11.133 50.073,7.110 48.640,3.394 ZM20.761,52.838 C20.761,52.838 21.068,38.443 31.608,36.428 C42.150,34.413 47.746,47.680 47.746,47.680 C47.746,47.680 41.226,43.300 33.045,44.863 C24.867,46.427 20.761,52.838 20.761,52.838 ZM32.468,21.683 C32.468,21.683 35.576,23.967 39.675,23.184 C43.775,22.401 45.992,19.097 45.992,19.097 C45.992,19.097 45.867,26.460 40.582,27.471 C35.300,28.480 32.468,21.683 32.468,21.683 ZM20.354,31.338 C15.071,32.348 12.237,25.550 12.237,25.550 C12.237,25.550 15.347,27.835 19.446,27.051 C23.546,26.267 25.761,22.964 25.761,22.964 C25.761,22.964 25.637,30.328 20.354,31.338 Z" id="path-1" />
</svg>
