<?xml version="1.0" encoding="utf-8"?>
<!-- Generator: Adobe Illustrator 18.1.1, SVG Export Plug-In . SVG Version: 6.00 Build 0)  -->
<!DOCTYPE svg PUBLIC "-//W3C//DTD SVG 1.1//EN" "http://www.w3.org/Graphics/SVG/1.1/DTD/svg11.dtd">
<svg version="1.1" id="Layer_1" xmlns="http://www.w3.org/2000/svg" xmlns:xlink="http://www.w3.org/1999/xlink" x="0px" y="0px"
	 viewBox="20.6 25.8 22.7 12.6" enable-background="new 20.6 25.8 22.7 12.6" xml:space="preserve">
<g>
	<polygon opacity="8.000000e-02" fill="#010101" enable-background="new    " points="20.6,31.5 26.5,36.5 29.8,37.4 29.8,38.4 
		34.4,36.2 34.3,36 43.4,31 37.8,30.8 	"/>
	<polygon fill="#F4F4F4" points="20.6,31.5 24,33.3 26.8,36.5 29.8,38.4 34.5,35.9 37.5,32.9 43.5,31 39.7,29.8 34.3,25.8 
		29.8,27.2 28.3,29 	"/>
	<polygon fill="#E3E5E5" points="37.6,32.9 43.5,31 39.7,29.8 34.3,25.8 30.1,27.1 	"/>
	<polygon fill="#D8D9D8" points="28.2,29 34.3,36 34.5,35.9 37.5,32.9 37.6,32.9 37.6,32.9 29.8,27.2 28.3,29 	"/>
	<polygon fill="#FFFFFF" points="28.2,29 20.6,31.5 24,33.3 	"/>
</g>
</svg>
