<svg xmlns="http://www.w3.org/2000/svg" xmlns:xlink="http://www.w3.org/1999/xlink" preserveAspectRatio="xMidYMid" width="361" height="361" viewBox="0 0 361 361">
  <path d="M11.405,236.673 C11.405,236.673 0.012,178.203 0.012,178.203 C0.012,178.203 5.992,70.913 5.992,70.913 C5.992,70.913 30.950,-0.007 30.950,-0.007 C30.950,-0.007 163.558,77.000 163.558,77.000 C163.558,77.000 181.009,95.236 181.009,95.236 C181.009,95.236 334.655,168.818 334.655,168.818 C334.655,168.818 338.924,200.868 338.924,200.868 C338.924,200.868 259.821,164.822 259.821,164.822 C259.821,164.822 269.607,205.356 269.607,205.356 C269.607,205.356 266.061,226.628 266.061,226.628 C266.061,226.628 274.025,256.436 274.025,256.436 C274.025,256.436 271.136,295.159 271.136,295.159 C271.136,295.159 355.307,323.936 355.307,323.936 C355.307,323.936 360.215,360.780 360.215,360.780 C360.215,360.780 356.699,359.533 356.699,359.533 C356.699,359.533 11.405,236.673 11.405,236.673 ZM10.386,72.092 C10.386,72.092 4.507,177.865 4.507,177.865 C4.507,177.865 15.369,233.257 15.369,233.257 C15.369,233.257 354.728,354.005 354.728,354.005 C354.728,354.005 351.177,327.335 351.177,327.335 C351.177,327.335 266.351,298.329 266.351,298.329 C266.351,298.329 269.470,256.516 269.470,256.516 C269.470,256.516 261.504,226.403 261.504,226.403 C261.504,226.403 265.055,205.101 265.055,205.101 C265.055,205.101 253.162,156.784 253.162,156.784 C253.162,156.784 333.333,193.313 333.333,193.313 C333.333,193.313 330.475,171.866 330.475,171.866 C330.475,171.866 178.285,98.982 178.285,98.982 C178.285,98.982 160.705,80.607 160.705,80.607 C160.705,80.607 33.403,6.681 33.403,6.681 C33.403,6.681 10.386,72.092 10.386,72.092 Z" id="path-1" />
</svg>
