<?xml version="1.0" encoding="utf-8"?>
<!-- Generator: Adobe Illustrator 18.1.1, SVG Export Plug-In . SVG Version: 6.00 Build 0)  -->
<!DOCTYPE svg PUBLIC "-//W3C//DTD SVG 1.1//EN" "http://www.w3.org/Graphics/SVG/1.1/DTD/svg11.dtd">
<svg version="1.1" id="Layer_1" xmlns="http://www.w3.org/2000/svg" xmlns:xlink="http://www.w3.org/1999/xlink" x="0px" y="0px"
	 viewBox="20.2 18.5 23.6 26.9" enable-background="new 20.2 18.5 23.6 26.9" xml:space="preserve">
<g>
	<path fill="#008F62" d="M40.2,45.5H23.9c-1.1,0-2-0.9-2-2V19.9h20.2v23.6C42.1,44.6,41.3,45.5,40.2,45.5z"/>
	<rect x="20.2" y="18.5" fill="#07A36B" width="23.6" height="1.4"/>
</g>
</svg>
