<svg xmlns="http://www.w3.org/2000/svg" xmlns:xlink="http://www.w3.org/1999/xlink" preserveAspectRatio="xMidYMid" width="60" height="61" viewBox="0 0 60 61">
  <path d="M57.715,44.553 C57.715,44.553 50.004,48.823 50.004,48.823 C47.529,50.196 43.952,50.165 41.502,48.744 C41.502,48.744 36.979,46.122 36.979,46.122 C36.328,45.745 34.873,45.703 34.197,46.039 C34.197,46.039 28.214,49.011 28.214,49.011 C25.688,50.263 22.125,50.106 19.735,48.633 C19.735,48.633 15.705,46.151 15.705,46.151 C15.095,45.776 13.711,45.720 13.062,46.046 C13.062,46.046 4.335,50.428 4.335,50.428 C3.903,50.643 3.444,50.746 2.991,50.746 C1.892,50.746 0.834,50.141 0.307,49.092 C-0.436,47.611 0.163,45.809 1.643,45.065 C1.643,45.065 10.369,40.684 10.369,40.684 C12.887,39.418 16.455,39.566 18.851,41.043 C18.851,41.043 22.880,43.526 22.880,43.526 C23.493,43.903 24.890,43.961 25.545,43.635 C25.545,43.635 31.527,40.665 31.527,40.665 C34.022,39.427 37.581,39.536 39.985,40.932 C39.985,40.932 44.508,43.552 44.508,43.552 C45.122,43.907 46.475,43.921 47.096,43.576 C47.096,43.576 54.807,39.305 54.807,39.305 C56.256,38.500 58.083,39.026 58.885,40.477 C59.689,41.926 59.164,43.752 57.715,44.553 ZM57.678,34.561 C57.678,34.561 49.967,38.831 49.967,38.831 C48.766,39.498 47.301,39.831 45.836,39.831 C44.307,39.831 42.778,39.470 41.538,38.752 C41.538,38.752 37.014,36.131 37.014,36.131 C36.651,35.920 36.043,35.811 35.453,35.811 C34.959,35.811 34.477,35.888 34.161,36.045 C34.161,36.045 28.178,39.016 28.178,39.016 C27.049,39.577 25.710,39.852 24.363,39.852 C22.724,39.852 21.072,39.444 19.771,38.642 C19.771,38.642 15.742,36.159 15.742,36.159 C15.394,35.946 14.799,35.832 14.225,35.832 C13.768,35.832 13.324,35.903 13.028,36.052 C13.028,36.052 4.301,40.432 4.301,40.432 C3.879,40.643 3.431,40.745 2.990,40.745 C1.901,40.745 0.853,40.132 0.337,39.075 C-0.389,37.589 0.211,35.789 1.676,35.055 C1.676,35.055 6.566,32.600 6.566,32.600 C6.566,32.600 7.455,32.154 7.455,32.154 C7.455,32.154 8.349,31.705 8.349,31.705 C8.349,31.705 10.401,30.675 10.401,30.675 C11.535,30.107 12.882,29.827 14.238,29.827 C15.871,29.827 17.516,30.234 18.813,31.031 C18.813,31.031 21.917,32.944 21.917,32.944 C21.917,32.944 22.842,33.515 22.842,33.515 C23.000,33.610 23.212,33.684 23.445,33.739 C23.684,33.795 23.946,33.826 24.213,33.836 C24.269,33.838 24.324,33.844 24.380,33.844 C24.415,33.844 24.446,33.838 24.480,33.836 C24.900,33.826 25.303,33.762 25.577,33.627 C25.577,33.627 26.954,32.944 26.954,32.944 C26.954,32.944 27.170,32.836 27.170,32.836 C27.170,32.836 29.184,31.837 29.184,31.837 C29.184,31.837 31.561,30.655 31.561,30.655 C32.402,30.238 33.366,29.978 34.364,29.867 C34.695,29.831 35.029,29.812 35.364,29.809 C35.398,29.809 35.432,29.803 35.467,29.803 C35.768,29.803 36.066,29.831 36.364,29.856 C37.655,29.971 38.911,30.319 39.950,30.922 C39.950,30.922 43.441,32.944 43.441,32.944 C43.441,32.944 44.473,33.542 44.473,33.542 C44.797,33.729 45.321,33.823 45.840,33.823 C46.335,33.823 46.822,33.739 47.133,33.565 C47.133,33.565 50.456,31.725 50.456,31.725 C50.456,31.725 51.555,31.117 51.555,31.117 C51.555,31.117 54.844,29.296 54.844,29.296 C55.294,29.047 55.780,28.929 56.258,28.929 C57.305,28.929 58.320,29.494 58.857,30.492 C59.639,31.945 59.112,33.768 57.678,34.561 ZM30.670,28.865 C30.670,28.865 24.863,31.748 24.863,31.748 C24.863,31.748 24.863,20.727 24.863,20.727 C24.863,20.727 34.363,20.727 34.363,20.727 C34.363,20.727 34.363,27.862 34.363,27.862 C33.030,27.984 31.768,28.319 30.670,28.865 ZM19.861,29.329 C18.287,28.359 16.290,27.827 14.237,27.827 C12.524,27.827 10.887,28.193 9.503,28.889 C9.503,28.889 8.196,29.544 8.196,29.544 C8.196,29.544 8.196,22.191 8.196,22.191 C8.931,22.111 9.621,21.842 10.170,21.391 C10.170,21.391 28.914,6.011 28.914,6.011 C28.914,6.011 47.657,21.391 47.657,21.391 C48.191,21.829 48.858,22.097 49.570,22.186 C49.570,22.186 49.570,29.929 49.570,29.929 C49.570,29.929 46.213,31.788 46.213,31.788 C46.158,31.800 46.026,31.822 45.838,31.822 C45.629,31.822 45.481,31.795 45.418,31.779 C45.418,31.779 40.951,29.190 40.951,29.190 C39.643,28.431 38.037,27.984 36.362,27.859 C36.362,27.859 36.362,19.729 36.362,19.729 C36.362,19.175 35.915,18.729 35.362,18.729 C35.362,18.729 23.862,18.729 23.862,18.729 C23.309,18.729 22.862,19.175 22.862,19.729 C22.862,19.729 22.862,31.179 22.862,31.179 C22.862,31.179 19.861,29.329 19.861,29.329 ZM51.527,20.231 C51.254,20.456 50.920,20.599 50.571,20.671 C50.406,20.705 50.238,20.727 50.069,20.727 C49.901,20.727 49.735,20.705 49.571,20.671 C49.219,20.600 48.885,20.457 48.610,20.231 C48.610,20.231 28.914,4.070 28.914,4.070 C28.914,4.070 9.218,20.233 9.218,20.233 C8.927,20.471 8.570,20.622 8.196,20.687 C8.052,20.712 7.906,20.729 7.759,20.729 C7.569,20.729 7.381,20.699 7.196,20.656 C6.868,20.581 6.558,20.443 6.300,20.233 C6.261,20.199 6.232,20.163 6.196,20.127 C5.541,19.498 5.541,18.573 6.196,17.943 C6.231,17.909 6.260,17.872 6.300,17.839 C6.300,17.839 7.196,17.104 7.196,17.104 C7.196,17.104 8.196,16.282 8.196,16.282 C8.196,16.282 23.770,3.503 23.770,3.503 C23.770,3.503 24.989,2.504 24.989,2.504 C24.989,2.504 26.207,1.504 26.207,1.504 C26.207,1.504 27.455,0.480 27.455,0.480 C27.842,0.163 28.378,0.003 28.914,0.003 C29.450,0.003 29.986,0.163 30.373,0.480 C30.373,0.480 31.621,1.504 31.621,1.504 C31.621,1.504 32.838,2.504 32.838,2.504 C32.838,2.504 34.057,3.503 34.057,3.503 C34.057,3.503 49.571,16.233 49.571,16.233 C49.571,16.233 50.571,17.052 50.571,17.052 C50.571,17.052 51.527,17.837 51.527,17.837 C51.544,17.852 51.555,17.867 51.571,17.882 C52.312,18.530 52.312,19.539 51.571,20.188 C51.555,20.202 51.544,20.217 51.527,20.231 ZM47.571,3.503 C48.674,3.503 49.571,4.400 49.571,5.503 C49.571,5.503 49.571,14.293 49.571,14.293 C49.571,14.293 36.422,3.503 36.422,3.503 C36.422,3.503 47.571,3.503 47.571,3.503 ZM8.196,5.503 C8.196,4.400 9.093,3.503 10.196,3.503 C10.196,3.503 21.405,3.503 21.405,3.503 C21.405,3.503 8.196,14.343 8.196,14.343 C8.196,14.343 8.196,5.503 8.196,5.503 ZM1.643,55.065 C1.643,55.065 10.369,50.684 10.369,50.684 C12.887,49.418 16.455,49.567 18.851,51.043 C18.851,51.043 22.880,53.526 22.880,53.526 C23.493,53.903 24.890,53.961 25.545,53.635 C25.545,53.635 31.527,50.665 31.527,50.665 C34.022,49.426 37.581,49.537 39.985,50.932 C39.985,50.932 44.508,53.552 44.508,53.552 C45.122,53.905 46.475,53.920 47.096,53.576 C47.096,53.576 54.807,49.305 54.807,49.305 C56.256,48.498 58.083,49.026 58.885,50.477 C59.689,51.925 59.164,53.751 57.715,54.553 C57.715,54.553 50.004,58.823 50.004,58.823 C47.529,60.197 43.952,60.164 41.502,58.744 C41.502,58.744 36.979,56.122 36.979,56.122 C36.328,55.744 34.873,55.703 34.197,56.039 C34.197,56.039 28.214,59.010 28.214,59.010 C25.688,60.262 22.125,60.105 19.735,58.633 C19.735,58.633 15.705,56.151 15.705,56.151 C15.095,55.776 13.711,55.720 13.062,56.047 C13.062,56.047 4.335,60.427 4.335,60.427 C3.903,60.643 3.444,60.747 2.991,60.747 C1.892,60.747 0.834,60.141 0.307,59.091 C-0.436,57.612 0.163,55.809 1.643,55.065 Z" id="path-1" />
</svg>
