{
    "name"        : "jqpatch",
    "version"     : "1.1.1",
    "description" : "A collections of jQuery plugins to patch the original plugins. Also contains new plugins.",
    "title"       : "jQuery Patch Collections"
}